^C:\USERS\MRIAR\ONEDRIVE\DOCUMENTS\VISUAL STUDIO 2013\PROJECTS\WIN32PROJECT2\WIN32PROJECT2\ИСХОДНЫЙ КОД.CPP
C:\USERS\MRIAR\ONEDRIVE\DOCUMENTS\VISUAL STUDIO 2013\PROJECTS\WIN32PROJECT2\WIN32PROJECT2\DEBUG\VC120.PDB
C:\USERS\MRIAR\ONEDRIVE\DOCUMENTS\VISUAL STUDIO 2013\PROJECTS\WIN32PROJECT2\WIN32PROJECT2\DEBUG\VC120.IDB
C:\USERS\MRIAR\ONEDRIVE\DOCUMENTS\VISUAL STUDIO 2013\PROJECTS\WIN32PROJECT2\WIN32PROJECT2\DEBUG\Исходный код.OBJ
