^C:\USERS\MRIAR\ONEDRIVE\DOCUMENTS\VISUAL STUDIO 2013\PROJECTS\ЗАВДАННЯ 3\ЗАВДАННЯ 3\DEBUG\.NETFRAMEWORK,VERSION=V4.5.ASSEMBLYATTRIBUTES.OBJ|C:\USERS\MRIAR\ONEDRIVE\DOCUMENTS\VISUAL STUDIO 2013\PROJECTS\ЗАВДАННЯ 3\ЗАВДАННЯ 3\DEBUG\ИСХОДНЫЙ КОД.OBJ
C:\USERS\MRIAR\ONEDRIVE\DOCUMENTS\VISUAL STUDIO 2013\PROJECTS\Завдання 3\DEBUG\Завдання 3.EXE
C:\USERS\MRIAR\ONEDRIVE\DOCUMENTS\VISUAL STUDIO 2013\PROJECTS\ЗАВДАННЯ 3\DEBUG\ЗАВДАННЯ 3.PDB
